%YAML 1.1
%TAG !u! tag:unity3d.com,2011:
--- !u!1045 &1
EditorBuildSettings:
  m_ObjectHideFlags: 0
  serializedVersion: 2
  m_Scenes:
  - enabled: 0
    path: 
    guid: 00000000000000000000000000000000
  - enabled: 1
    path: Assets/Scenes/EscenaTitulo.unity
    guid: 72b62bc157219424b8560917b8b11f96
  - enabled: 1
    path: Assets/Scenes/Escena01.unity
    guid: 6e9234f824c3ff34383b45b2d7c2bc06
  m_configObjects: {}
