%YAML 1.1
%TAG !u! tag:unity3d.com,2011:
--- !u!162 &1
EditorUserSettings:
  m_ObjectHideFlags: 0
  serializedVersion: 4
  m_ConfigSettings:
    RecentlyUsedSceneGuid-0:
      value: 55540d5456010f035f5a0f7116250c44454f4b28787d2462297e1e61e0e3646e
      flags: 0
    RecentlyUsedSceneGuid-1:
      value: 5403565057570a0a58595e7349770d44144f4d7c7c7177672f711f62b3e66d6e
      flags: 0
    RecentlyUsedSceneGuid-2:
      value: 00020654040408585c0b5c774077074440154c7c7d2e7f33787f1b60e7e1366b
      flags: 0
    RecentlyUsedSceneGuid-3:
      value: 01520350040d0a59550a0d2343750f4444164d2c7878246378284f6bb0e2663a
      flags: 0
    RecentlyUsedSceneGuid-4:
      value: 02070055065608085d0d5e7a1426084445164e7b7a7d756778794d37b4b7656c
      flags: 0
    vcSharedLogLevel:
      value: 0d5e400f0650
      flags: 0
  m_VCAutomaticAdd: 1
  m_VCDebugCom: 0
  m_VCDebugCmd: 0
  m_VCDebugOut: 0
  m_SemanticMergeMode: 2
  m_DesiredImportWorkerCount: 2
  m_StandbyImportWorkerCount: 2
  m_IdleImportWorkerShutdownDelay: 60000
  m_VCShowFailedCheckout: 1
  m_VCOverwriteFailedCheckoutAssets: 1
  m_VCProjectOverlayIcons: 1
  m_VCHierarchyOverlayIcons: 1
  m_VCOtherOverlayIcons: 1
  m_VCAllowAsyncUpdate: 1
  m_ArtifactGarbageCollection: 1
